^C:\USERS\MINSU\DESKTOP\D3D12\DIRECT3D-12\D3D12LABPROJECTS\MYPROJECT\MYPROJECT.RC
C:\USERS\MINSU\DESKTOP\D3D12\DIRECT3D-12\D3D12LABPROJECTS\MYPROJECT\RESOURCE.H
C:\USERS\MINSU\DESKTOP\D3D12\DIRECT3D-12\D3D12LABPROJECTS\MYPROJECT\TARGETVER.H
C:\PROGRAM FILES (X86)\WINDOWS KITS\10\INCLUDE\10.0.18362.0\SHARED\SDKDDKVER.H
C:\PROGRAM FILES (X86)\WINDOWS KITS\10\INCLUDE\10.0.18362.0\UM\WINDOWS.H
C:\PROGRAM FILES (X86)\WINDOWS KITS\10\INCLUDE\10.0.18362.0\SHARED\WINAPIFAMILY.H
C:\PROGRAM FILES (X86)\WINDOWS KITS\10\INCLUDE\10.0.18362.0\SHARED\WINPACKAGEFAMILY.H
C:\PROGRAM FILES (X86)\WINDOWS KITS\10\INCLUDE\10.0.18362.0\UM\WINRESRC.H
C:\PROGRAM FILES (X86)\WINDOWS KITS\10\INCLUDE\10.0.18362.0\UM\WINUSER.RH
C:\PROGRAM FILES (X86)\WINDOWS KITS\10\INCLUDE\10.0.18362.0\UM\COMMCTRL.RH
C:\PROGRAM FILES (X86)\WINDOWS KITS\10\INCLUDE\10.0.18362.0\UM\DDE.RH
C:\PROGRAM FILES (X86)\WINDOWS KITS\10\INCLUDE\10.0.18362.0\UM\WINNT.RH
C:\PROGRAM FILES (X86)\WINDOWS KITS\10\INCLUDE\10.0.18362.0\UM\DLGS.H
C:\PROGRAM FILES (X86)\WINDOWS KITS\10\INCLUDE\10.0.18362.0\UM\WINVER.H
C:\PROGRAM FILES (X86)\WINDOWS KITS\10\INCLUDE\10.0.18362.0\SHARED\SPECSTRINGS.H
C:\PROGRAM FILES (X86)\MICROSOFT VISUAL STUDIO\2019\COMMUNITY\VC\TOOLS\MSVC\14.25.28610\INCLUDE\SAL.H
C:\PROGRAM FILES (X86)\MICROSOFT VISUAL STUDIO\2019\COMMUNITY\VC\TOOLS\MSVC\14.25.28610\INCLUDE\CONCURRENCYSAL.H
C:\PROGRAM FILES (X86)\WINDOWS KITS\10\INCLUDE\10.0.18362.0\SHARED\DRIVERSPECS.H
C:\PROGRAM FILES (X86)\WINDOWS KITS\10\INCLUDE\10.0.18362.0\SHARED\SDV_DRIVERSPECS.H
C:\PROGRAM FILES (X86)\WINDOWS KITS\10\INCLUDE\10.0.18362.0\UM\VERRSRC.H
C:\USERS\MINSU\DESKTOP\D3D12\DIRECT3D-12\D3D12LABPROJECTS\MYPROJECT\MYPROJECT.ICO
C:\USERS\MINSU\DESKTOP\D3D12\DIRECT3D-12\D3D12LABPROJECTS\MYPROJECT\SMALL.ICO
