^C:\Users\Minsu\Desktop\D3D12\direct3d-12\WinAPILabProject02-1\WinAPILabProject02-1\WinAPILabProject02-1.vcxproj
C:\Users\Minsu\Desktop\D3D12\direct3d-12\WinAPILabProject02-1\x64\Release\WinAPILabProject02-1.ipdb
C:\Users\Minsu\Desktop\D3D12\direct3d-12\WinAPILabProject02-1\x64\Release\WinAPILabProject02-1.iobj
^C:\Users\Minsu\Desktop\D3D12\direct3d-12\WinAPILabProject02-1\WinAPILabProject02-1\WinAPILabProject02-1.vcxproj
C:\Users\Minsu\Desktop\D3D12\direct3d-12\WinAPILabProject02-1\x64\Release\WinAPILabProject02-1.ipdb
C:\Users\Minsu\Desktop\D3D12\direct3d-12\WinAPILabProject02-1\x64\Release\WinAPILabProject02-1.iobj
