^C:\Users\Minsu\Desktop\D3D12\direct3d-12\D3D12LabProjects\D3D12LabProject10\D3D12LabProject10.vcxproj
C:\Users\Minsu\Desktop\D3D12\direct3d-12\D3D12LabProjects\x64\Release\D3D12LabProject10.ipdb
C:\Users\Minsu\Desktop\D3D12\direct3d-12\D3D12LabProjects\x64\Release\D3D12LabProject10.iobj
^C:\Users\Minsu\Desktop\D3D12\direct3d-12\D3D12LabProjects\D3D12LabProject10\D3D12LabProject10.vcxproj
C:\Users\Minsu\Desktop\D3D12\direct3d-12\D3D12LabProjects\x64\Release\D3D12LabProject10.ipdb
C:\Users\Minsu\Desktop\D3D12\direct3d-12\D3D12LabProjects\x64\Release\D3D12LabProject10.iobj
^C:\Users\Minsu\Desktop\D3D12\direct3d-12\D3D12LabProjects\D3D12LabProject10\D3D12LabProject10.vcxproj
C:\Users\Minsu\Desktop\D3D12\direct3d-12\D3D12LabProjects\x64\Release\D3D12LabProject10.ipdb
C:\Users\Minsu\Desktop\D3D12\direct3d-12\D3D12LabProjects\x64\Release\D3D12LabProject10.iobj
^C:\Users\Minsu\Desktop\D3D12\direct3d-12\D3D12LabProjects\D3D12LabProject10\D3D12LabProject10.vcxproj
C:\Users\Minsu\Desktop\D3D12\direct3d-12\D3D12LabProjects\x64\Release\D3D12LabProject10.ipdb
C:\Users\Minsu\Desktop\D3D12\direct3d-12\D3D12LabProjects\x64\Release\D3D12LabProject10.iobj
^C:\Users\Minsu\Desktop\D3D12\direct3d-12\D3D12LabProjects\D3D12LabProject10\D3D12LabProject10.vcxproj
C:\Users\Minsu\Desktop\D3D12\direct3d-12\D3D12LabProjects\x64\Release\D3D12LabProject10.ipdb
C:\Users\Minsu\Desktop\D3D12\direct3d-12\D3D12LabProjects\x64\Release\D3D12LabProject10.iobj
^C:\Users\Minsu\Desktop\D3D12\direct3d-12\D3D12LabProjects\D3D12LabProject10\D3D12LabProject10.vcxproj
C:\Users\Minsu\Desktop\D3D12\direct3d-12\D3D12LabProjects\x64\Release\D3D12LabProject10.ipdb
C:\Users\Minsu\Desktop\D3D12\direct3d-12\D3D12LabProjects\x64\Release\D3D12LabProject10.iobj
