^C:\USERS\MINSU\DESKTOP\D3D12\DIRECT3D-12\D3D12LABPROJECTS\D3D12LABPROJECT10\X64\RELEASE\CAMERA.OBJ|C:\USERS\MINSU\DESKTOP\D3D12\DIRECT3D-12\D3D12LABPROJECTS\D3D12LABPROJECT10\X64\RELEASE\CGAMEFRAMEWORK.OBJ|C:\USERS\MINSU\DESKTOP\D3D12\DIRECT3D-12\D3D12LABPROJECTS\D3D12LABPROJECT10\X64\RELEASE\D3D12LABPROJECT10.OBJ|C:\USERS\MINSU\DESKTOP\D3D12\DIRECT3D-12\D3D12LABPROJECTS\D3D12LABPROJECT10\X64\RELEASE\D3D12LABPROJECT10.RES|C:\USERS\MINSU\DESKTOP\D3D12\DIRECT3D-12\D3D12LABPROJECTS\D3D12LABPROJECT10\X64\RELEASE\GAMEOBJECT.OBJ|C:\USERS\MINSU\DESKTOP\D3D12\DIRECT3D-12\D3D12LABPROJECTS\D3D12LABPROJECT10\X64\RELEASE\MESH.OBJ|C:\USERS\MINSU\DESKTOP\D3D12\DIRECT3D-12\D3D12LABPROJECTS\D3D12LABPROJECT10\X64\RELEASE\SCENE.OBJ|C:\USERS\MINSU\DESKTOP\D3D12\DIRECT3D-12\D3D12LABPROJECTS\D3D12LABPROJECT10\X64\RELEASE\SHADER.OBJ|C:\USERS\MINSU\DESKTOP\D3D12\DIRECT3D-12\D3D12LABPROJECTS\D3D12LABPROJECT10\X64\RELEASE\STDAFX.OBJ|C:\USERS\MINSU\DESKTOP\D3D12\DIRECT3D-12\D3D12LABPROJECTS\D3D12LABPROJECT10\X64\RELEASE\TIMER.OBJ
C:\USERS\MINSU\DESKTOP\D3D12\DIRECT3D-12\D3D12LABPROJECTS\X64\RELEASE\D3D12LABPROJECT10.EXE
C:\USERS\MINSU\DESKTOP\D3D12\DIRECT3D-12\D3D12LABPROJECTS\X64\RELEASE\D3D12LABPROJECT10.PDB
