^C:\USERS\MINSU\DESKTOP\D3D12\DIRECT3D-12\D3D12LABPROJECTS\D3D12LABPROJECT05-1\CGAMEFRAMEWORK.CPP
/c /Zi /nologo /W3 /WX- /diagnostics:column /sdl /O2 /Oi /GL /D NDEBUG /D _WINDOWS /D _UNICODE /D UNICODE /Gm- /EHsc /MD /GS /Gy /fp:precise /permissive- /Zc:wchar_t /Zc:forScope /Zc:inline /Fo"X64\RELEASE\\" /Fd"X64\RELEASE\VC142.PDB" /Gd /TP /FC C:\USERS\MINSU\DESKTOP\D3D12\DIRECT3D-12\D3D12LABPROJECTS\D3D12LABPROJECT05-1\CGAMEFRAMEWORK.CPP
^C:\USERS\MINSU\DESKTOP\D3D12\DIRECT3D-12\D3D12LABPROJECTS\D3D12LABPROJECT05-1\D3D12LABPROJECT05-1.CPP
/c /Zi /nologo /W3 /WX- /diagnostics:column /sdl /O2 /Oi /GL /D NDEBUG /D _WINDOWS /D _UNICODE /D UNICODE /Gm- /EHsc /MD /GS /Gy /fp:precise /permissive- /Zc:wchar_t /Zc:forScope /Zc:inline /Fo"X64\RELEASE\\" /Fd"X64\RELEASE\VC142.PDB" /Gd /TP /FC C:\USERS\MINSU\DESKTOP\D3D12\DIRECT3D-12\D3D12LABPROJECTS\D3D12LABPROJECT05-1\D3D12LABPROJECT05-1.CPP
^C:\USERS\MINSU\DESKTOP\D3D12\DIRECT3D-12\D3D12LABPROJECTS\D3D12LABPROJECT05-1\TIMER.CPP
/c /Zi /nologo /W3 /WX- /diagnostics:column /sdl /O2 /Oi /GL /D NDEBUG /D _WINDOWS /D _UNICODE /D UNICODE /Gm- /EHsc /MD /GS /Gy /fp:precise /permissive- /Zc:wchar_t /Zc:forScope /Zc:inline /Fo"X64\RELEASE\\" /Fd"X64\RELEASE\VC142.PDB" /Gd /TP /FC C:\USERS\MINSU\DESKTOP\D3D12\DIRECT3D-12\D3D12LABPROJECTS\D3D12LABPROJECT05-1\TIMER.CPP
^C:\USERS\MINSU\DESKTOP\D3D12\DIRECT3D-12\D3D12LABPROJECTS\D3D12LABPROJECT05-1\STDAFX.CPP
/c /Zi /nologo /W3 /WX- /diagnostics:column /sdl /O2 /Oi /GL /D NDEBUG /D _WINDOWS /D _UNICODE /D UNICODE /Gm- /EHsc /MD /GS /Gy /fp:precise /permissive- /Zc:wchar_t /Zc:forScope /Zc:inline /Fo"X64\RELEASE\\" /Fd"X64\RELEASE\VC142.PDB" /Gd /TP /FC C:\USERS\MINSU\DESKTOP\D3D12\DIRECT3D-12\D3D12LABPROJECTS\D3D12LABPROJECT05-1\STDAFX.CPP
^C:\USERS\MINSU\DESKTOP\D3D12\DIRECT3D-12\D3D12LABPROJECTS\D3D12LABPROJECT05-1\SCENE.CPP
/c /Zi /nologo /W3 /WX- /diagnostics:column /sdl /O2 /Oi /GL /D NDEBUG /D _WINDOWS /D _UNICODE /D UNICODE /Gm- /EHsc /MD /GS /Gy /fp:precise /permissive- /Zc:wchar_t /Zc:forScope /Zc:inline /Fo"X64\RELEASE\\" /Fd"X64\RELEASE\VC142.PDB" /Gd /TP /FC C:\USERS\MINSU\DESKTOP\D3D12\DIRECT3D-12\D3D12LABPROJECTS\D3D12LABPROJECT05-1\SCENE.CPP
