^C:\USERS\MINSU\DESKTOP\D3D12\DIRECT3D-12\D3D12LABPROJECTS\D3D12LABPROJECT07\CGAMEFRAMEWORK.CPP|C:\USERS\MINSU\DESKTOP\D3D12\DIRECT3D-12\D3D12LABPROJECTS\D3D12LABPROJECT07\D3D12LABPROJECT07.CPP|C:\USERS\MINSU\DESKTOP\D3D12\DIRECT3D-12\D3D12LABPROJECTS\D3D12LABPROJECT07\GAMEOBJECT.CPP|C:\USERS\MINSU\DESKTOP\D3D12\DIRECT3D-12\D3D12LABPROJECTS\D3D12LABPROJECT07\MESH.CPP|C:\USERS\MINSU\DESKTOP\D3D12\DIRECT3D-12\D3D12LABPROJECTS\D3D12LABPROJECT07\SCENE.CPP|C:\USERS\MINSU\DESKTOP\D3D12\DIRECT3D-12\D3D12LABPROJECTS\D3D12LABPROJECT07\SHADER.CPP|C:\USERS\MINSU\DESKTOP\D3D12\DIRECT3D-12\D3D12LABPROJECTS\D3D12LABPROJECT07\STDAFX.CPP|C:\USERS\MINSU\DESKTOP\D3D12\DIRECT3D-12\D3D12LABPROJECTS\D3D12LABPROJECT07\TIMER.CPP
C:\USERS\MINSU\DESKTOP\D3D12\DIRECT3D-12\D3D12LABPROJECTS\D3D12LABPROJECT07\X64\RELEASE\VC142.PDB
C:\USERS\MINSU\DESKTOP\D3D12\DIRECT3D-12\D3D12LABPROJECTS\D3D12LABPROJECT07\X64\RELEASE\TIMER.OBJ
C:\USERS\MINSU\DESKTOP\D3D12\DIRECT3D-12\D3D12LABPROJECTS\D3D12LABPROJECT07\X64\RELEASE\STDAFX.OBJ
C:\USERS\MINSU\DESKTOP\D3D12\DIRECT3D-12\D3D12LABPROJECTS\D3D12LABPROJECT07\X64\RELEASE\SHADER.OBJ
C:\USERS\MINSU\DESKTOP\D3D12\DIRECT3D-12\D3D12LABPROJECTS\D3D12LABPROJECT07\X64\RELEASE\SCENE.OBJ
C:\USERS\MINSU\DESKTOP\D3D12\DIRECT3D-12\D3D12LABPROJECTS\D3D12LABPROJECT07\X64\RELEASE\MESH.OBJ
C:\USERS\MINSU\DESKTOP\D3D12\DIRECT3D-12\D3D12LABPROJECTS\D3D12LABPROJECT07\X64\RELEASE\GAMEOBJECT.OBJ
C:\USERS\MINSU\DESKTOP\D3D12\DIRECT3D-12\D3D12LABPROJECTS\D3D12LABPROJECT07\X64\RELEASE\D3D12LABPROJECT07.OBJ
C:\USERS\MINSU\DESKTOP\D3D12\DIRECT3D-12\D3D12LABPROJECTS\D3D12LABPROJECT07\X64\RELEASE\CGAMEFRAMEWORK.OBJ
^C:\USERS\MINSU\DESKTOP\D3D12\DIRECT3D-12\D3D12LABPROJECTS\D3D12LABPROJECT07\CAMERA.CPP|C:\USERS\MINSU\DESKTOP\D3D12\DIRECT3D-12\D3D12LABPROJECTS\D3D12LABPROJECT07\CGAMEFRAMEWORK.CPP|C:\USERS\MINSU\DESKTOP\D3D12\DIRECT3D-12\D3D12LABPROJECTS\D3D12LABPROJECT07\D3D12LABPROJECT07.CPP|C:\USERS\MINSU\DESKTOP\D3D12\DIRECT3D-12\D3D12LABPROJECTS\D3D12LABPROJECT07\GAMEOBJECT.CPP|C:\USERS\MINSU\DESKTOP\D3D12\DIRECT3D-12\D3D12LABPROJECTS\D3D12LABPROJECT07\MESH.CPP|C:\USERS\MINSU\DESKTOP\D3D12\DIRECT3D-12\D3D12LABPROJECTS\D3D12LABPROJECT07\SCENE.CPP|C:\USERS\MINSU\DESKTOP\D3D12\DIRECT3D-12\D3D12LABPROJECTS\D3D12LABPROJECT07\SHADER.CPP|C:\USERS\MINSU\DESKTOP\D3D12\DIRECT3D-12\D3D12LABPROJECTS\D3D12LABPROJECT07\STDAFX.CPP|C:\USERS\MINSU\DESKTOP\D3D12\DIRECT3D-12\D3D12LABPROJECTS\D3D12LABPROJECT07\TIMER.CPP
C:\USERS\MINSU\DESKTOP\D3D12\DIRECT3D-12\D3D12LABPROJECTS\D3D12LABPROJECT07\X64\RELEASE\VC142.PDB
C:\USERS\MINSU\DESKTOP\D3D12\DIRECT3D-12\D3D12LABPROJECTS\D3D12LABPROJECT07\X64\RELEASE\TIMER.OBJ
C:\USERS\MINSU\DESKTOP\D3D12\DIRECT3D-12\D3D12LABPROJECTS\D3D12LABPROJECT07\X64\RELEASE\STDAFX.OBJ
C:\USERS\MINSU\DESKTOP\D3D12\DIRECT3D-12\D3D12LABPROJECTS\D3D12LABPROJECT07\X64\RELEASE\SHADER.OBJ
C:\USERS\MINSU\DESKTOP\D3D12\DIRECT3D-12\D3D12LABPROJECTS\D3D12LABPROJECT07\X64\RELEASE\MESH.OBJ
C:\USERS\MINSU\DESKTOP\D3D12\DIRECT3D-12\D3D12LABPROJECTS\D3D12LABPROJECT07\X64\RELEASE\D3D12LABPROJECT07.OBJ
C:\USERS\MINSU\DESKTOP\D3D12\DIRECT3D-12\D3D12LABPROJECTS\D3D12LABPROJECT07\X64\RELEASE\CGAMEFRAMEWORK.OBJ
C:\USERS\MINSU\DESKTOP\D3D12\DIRECT3D-12\D3D12LABPROJECTS\D3D12LABPROJECT07\X64\RELEASE\CAMERA.OBJ
^C:\USERS\MINSU\DESKTOP\D3D12\DIRECT3D-12\D3D12LABPROJECTS\D3D12LABPROJECT07\MESH.CPP
C:\USERS\MINSU\DESKTOP\D3D12\DIRECT3D-12\D3D12LABPROJECTS\D3D12LABPROJECT07\X64\RELEASE\MESH.OBJ
^C:\USERS\MINSU\DESKTOP\D3D12\DIRECT3D-12\D3D12LABPROJECTS\D3D12LABPROJECT07\STDAFX.CPP
C:\USERS\MINSU\DESKTOP\D3D12\DIRECT3D-12\D3D12LABPROJECTS\D3D12LABPROJECT07\X64\RELEASE\STDAFX.OBJ
^C:\USERS\MINSU\DESKTOP\D3D12\DIRECT3D-12\D3D12LABPROJECTS\D3D12LABPROJECT07\TIMER.CPP
C:\USERS\MINSU\DESKTOP\D3D12\DIRECT3D-12\D3D12LABPROJECTS\D3D12LABPROJECT07\X64\RELEASE\TIMER.OBJ
^C:\USERS\MINSU\DESKTOP\D3D12\DIRECT3D-12\D3D12LABPROJECTS\D3D12LABPROJECT07\CGAMEFRAMEWORK.CPP|C:\USERS\MINSU\DESKTOP\D3D12\DIRECT3D-12\D3D12LABPROJECTS\D3D12LABPROJECT07\D3D12LABPROJECT07.CPP|C:\USERS\MINSU\DESKTOP\D3D12\DIRECT3D-12\D3D12LABPROJECTS\D3D12LABPROJECT07\GAMEOBJECT.CPP|C:\USERS\MINSU\DESKTOP\D3D12\DIRECT3D-12\D3D12LABPROJECTS\D3D12LABPROJECT07\SCENE.CPP|C:\USERS\MINSU\DESKTOP\D3D12\DIRECT3D-12\D3D12LABPROJECTS\D3D12LABPROJECT07\SHADER.CPP
C:\USERS\MINSU\DESKTOP\D3D12\DIRECT3D-12\D3D12LABPROJECTS\D3D12LABPROJECT07\X64\RELEASE\VC142.PDB
C:\USERS\MINSU\DESKTOP\D3D12\DIRECT3D-12\D3D12LABPROJECTS\D3D12LABPROJECT07\X64\RELEASE\SHADER.OBJ
C:\USERS\MINSU\DESKTOP\D3D12\DIRECT3D-12\D3D12LABPROJECTS\D3D12LABPROJECT07\X64\RELEASE\SCENE.OBJ
C:\USERS\MINSU\DESKTOP\D3D12\DIRECT3D-12\D3D12LABPROJECTS\D3D12LABPROJECT07\X64\RELEASE\GAMEOBJECT.OBJ
C:\USERS\MINSU\DESKTOP\D3D12\DIRECT3D-12\D3D12LABPROJECTS\D3D12LABPROJECT07\X64\RELEASE\D3D12LABPROJECT07.OBJ
C:\USERS\MINSU\DESKTOP\D3D12\DIRECT3D-12\D3D12LABPROJECTS\D3D12LABPROJECT07\X64\RELEASE\CGAMEFRAMEWORK.OBJ
^C:\USERS\MINSU\DESKTOP\D3D12\DIRECT3D-12\D3D12LABPROJECTS\D3D12LABPROJECT07\CGAMEFRAMEWORK.CPP
C:\USERS\MINSU\DESKTOP\D3D12\DIRECT3D-12\D3D12LABPROJECTS\D3D12LABPROJECT07\X64\RELEASE\VC142.PDB
^C:\USERS\MINSU\DESKTOP\D3D12\DIRECT3D-12\D3D12LABPROJECTS\D3D12LABPROJECT07\D3D12LABPROJECT07.CPP
C:\USERS\MINSU\DESKTOP\D3D12\DIRECT3D-12\D3D12LABPROJECTS\D3D12LABPROJECT07\X64\RELEASE\VC142.PDB
^C:\USERS\MINSU\DESKTOP\D3D12\DIRECT3D-12\D3D12LABPROJECTS\D3D12LABPROJECT07\GAMEOBJECT.CPP
C:\USERS\MINSU\DESKTOP\D3D12\DIRECT3D-12\D3D12LABPROJECTS\D3D12LABPROJECT07\X64\RELEASE\VC142.PDB
^C:\USERS\MINSU\DESKTOP\D3D12\DIRECT3D-12\D3D12LABPROJECTS\D3D12LABPROJECT07\SCENE.CPP
C:\USERS\MINSU\DESKTOP\D3D12\DIRECT3D-12\D3D12LABPROJECTS\D3D12LABPROJECT07\X64\RELEASE\VC142.PDB
^C:\USERS\MINSU\DESKTOP\D3D12\DIRECT3D-12\D3D12LABPROJECTS\D3D12LABPROJECT07\SHADER.CPP
C:\USERS\MINSU\DESKTOP\D3D12\DIRECT3D-12\D3D12LABPROJECTS\D3D12LABPROJECT07\X64\RELEASE\VC142.PDB
^C:\USERS\MINSU\DESKTOP\D3D12\DIRECT3D-12\D3D12LABPROJECTS\D3D12LABPROJECT07\CAMERA.CPP
C:\USERS\MINSU\DESKTOP\D3D12\DIRECT3D-12\D3D12LABPROJECTS\D3D12LABPROJECT07\X64\RELEASE\VC142.PDB
C:\USERS\MINSU\DESKTOP\D3D12\DIRECT3D-12\D3D12LABPROJECTS\D3D12LABPROJECT07\X64\RELEASE\CAMERA.OBJ
