^C:\USERS\MINSU\DESKTOP\D3D12\DIRECT3D-12\D3D12LABPROJECTS\D3D12LABPROJECT11\X64\RELEASE\CAMERA.OBJ|C:\USERS\MINSU\DESKTOP\D3D12\DIRECT3D-12\D3D12LABPROJECTS\D3D12LABPROJECT11\X64\RELEASE\CGAMEFRAMEWORK.OBJ|C:\USERS\MINSU\DESKTOP\D3D12\DIRECT3D-12\D3D12LABPROJECTS\D3D12LABPROJECT11\X64\RELEASE\D3D12LABPROJECT11.OBJ|C:\USERS\MINSU\DESKTOP\D3D12\DIRECT3D-12\D3D12LABPROJECTS\D3D12LABPROJECT11\X64\RELEASE\D3D12LABPROJECT11.RES|C:\USERS\MINSU\DESKTOP\D3D12\DIRECT3D-12\D3D12LABPROJECTS\D3D12LABPROJECT11\X64\RELEASE\GAMEOBJECT.OBJ|C:\USERS\MINSU\DESKTOP\D3D12\DIRECT3D-12\D3D12LABPROJECTS\D3D12LABPROJECT11\X64\RELEASE\MESH.OBJ|C:\USERS\MINSU\DESKTOP\D3D12\DIRECT3D-12\D3D12LABPROJECTS\D3D12LABPROJECT11\X64\RELEASE\PLAYER.OBJ|C:\USERS\MINSU\DESKTOP\D3D12\DIRECT3D-12\D3D12LABPROJECTS\D3D12LABPROJECT11\X64\RELEASE\SCENE.OBJ|C:\USERS\MINSU\DESKTOP\D3D12\DIRECT3D-12\D3D12LABPROJECTS\D3D12LABPROJECT11\X64\RELEASE\SHADER.OBJ|C:\USERS\MINSU\DESKTOP\D3D12\DIRECT3D-12\D3D12LABPROJECTS\D3D12LABPROJECT11\X64\RELEASE\STDAFX.OBJ|C:\USERS\MINSU\DESKTOP\D3D12\DIRECT3D-12\D3D12LABPROJECTS\D3D12LABPROJECT11\X64\RELEASE\TIMER.OBJ
/OUT:"C:\USERS\MINSU\DESKTOP\D3D12\DIRECT3D-12\D3D12LABPROJECTS\X64\RELEASE\D3D12LABPROJECT11.EXE" /INCREMENTAL:NO /NOLOGO KERNEL32.LIB USER32.LIB GDI32.LIB WINSPOOL.LIB COMDLG32.LIB ADVAPI32.LIB SHELL32.LIB OLE32.LIB OLEAUT32.LIB UUID.LIB ODBC32.LIB ODBCCP32.LIB /MANIFEST /MANIFESTUAC:"level='asInvoker' uiAccess='false'" /manifest:embed /DEBUG /PDB:"C:\USERS\MINSU\DESKTOP\D3D12\DIRECT3D-12\D3D12LABPROJECTS\X64\RELEASE\D3D12LABPROJECT11.PDB" /SUBSYSTEM:WINDOWS /OPT:REF /OPT:ICF /LTCG:incremental /TLBID:1 /DYNAMICBASE /NXCOMPAT /IMPLIB:"C:\USERS\MINSU\DESKTOP\D3D12\DIRECT3D-12\D3D12LABPROJECTS\X64\RELEASE\D3D12LABPROJECT11.LIB" /MACHINE:X64 X64\RELEASE\D3D12LABPROJECT11.RES
X64\RELEASE\CAMERA.OBJ
X64\RELEASE\CGAMEFRAMEWORK.OBJ
X64\RELEASE\D3D12LABPROJECT11.OBJ
X64\RELEASE\GAMEOBJECT.OBJ
X64\RELEASE\MESH.OBJ
X64\RELEASE\PLAYER.OBJ
X64\RELEASE\SCENE.OBJ
X64\RELEASE\SHADER.OBJ
X64\RELEASE\STDAFX.OBJ
X64\RELEASE\TIMER.OBJ
